%YAML 1.1
%TAG !u! tag:unity3d.com,2011:
--- !u!114 &11400000
MonoBehaviour:
  m_ObjectHideFlags: 0
  m_CorrespondingSourceObject: {fileID: 0}
  m_PrefabInstance: {fileID: 0}
  m_PrefabAsset: {fileID: 0}
  m_GameObject: {fileID: 0}
  m_Enabled: 1
  m_EditorHideFlags: 0
  m_Script: {fileID: 11500000, guid: 0477a393654107d408e1c53245b44d95, type: 3}
  m_Name: OneWithNature
  m_EditorClassIdentifier: 
  eventName: 'One with Nature '
  description: The universe calls you, how do you anwser?You are very close to completing
    your journey.
  eventOptions:
  - description: You ask at the universe about life
    icon: {fileID: 0}
    costs:
    - resource: {fileID: 11400000, guid: e0895b4180cd15441acd5e5b522c3bc8, type: 2}
      numberOfResources: 3
    rewards:
    - resource: {fileID: 11400000, guid: e8b9df0995a58a448933e1ee2dde197a, type: 2}
      numberOfResources: 1
    concequences: []
    winCondition: 0
    loseCondition: 0
  - description: Become one with the universe
    icon: {fileID: 0}
    costs:
    - resource: {fileID: 11400000, guid: 68d8f3b705645ad4d9384d7ba637ba15, type: 2}
      numberOfResources: 1
    - resource: {fileID: 11400000, guid: e0895b4180cd15441acd5e5b522c3bc8, type: 2}
      numberOfResources: 4
    rewards: []
    concequences: []
    winCondition: 1
    loseCondition: 0
  - description: You tell the universe a bad joke, and walk away
    icon: {fileID: 0}
    costs: []
    rewards: []
    concequences: []
    winCondition: 0
    loseCondition: 0
  icon: {fileID: 2800000, guid: 9ec1b659c090278468825e7d10132e4e, type: 3}
  sequenceEvent: 1
  probability: 100
