%YAML 1.1
%TAG !u! tag:unity3d.com,2011:
--- !u!114 &11400000
MonoBehaviour:
  m_ObjectHideFlags: 0
  m_CorrespondingSourceObject: {fileID: 0}
  m_PrefabInstance: {fileID: 0}
  m_PrefabAsset: {fileID: 0}
  m_GameObject: {fileID: 0}
  m_Enabled: 1
  m_EditorHideFlags: 0
  m_Script: {fileID: 11500000, guid: 0477a393654107d408e1c53245b44d95, type: 3}
  m_Name: MountainPeople
  m_EditorClassIdentifier: 
  eventName: 'Mountain people '
  description: 'You just met a group of people from the mountains.  Folks who live
    in the mountains in huts and other uncomfortable things. Folks with many stories
    to tell. '
  eventOptions:
  - description: 'Trade food for money '
    icon: {fileID: 0}
    costs:
    - resource: {fileID: 11400000, guid: e01663de9e4aebb4db01d24516d85b82, type: 2}
      numberOfResources: 2
    rewards:
    - resource: {fileID: 11400000, guid: f8d6ad63e5c697244915d10aaa8359db, type: 2}
      numberOfResources: 2
    concequences: []
    winCondition: 0
    loseCondition: 0
  - description: Buy food
    icon: {fileID: 0}
    costs:
    - resource: {fileID: 11400000, guid: f8d6ad63e5c697244915d10aaa8359db, type: 2}
      numberOfResources: 2
    rewards:
    - resource: {fileID: 11400000, guid: e01663de9e4aebb4db01d24516d85b82, type: 2}
      numberOfResources: 2
    concequences: []
    winCondition: 0
    loseCondition: 0
  - description: 'Get some enegy roots '
    icon: {fileID: 0}
    costs:
    - resource: {fileID: 11400000, guid: f8d6ad63e5c697244915d10aaa8359db, type: 2}
      numberOfResources: 1
    rewards: []
    concequences:
    - {fileID: 11400000, guid: 315120e5ba714684293d68d9c7c825bb, type: 2}
    winCondition: 0
    loseCondition: 0
  - description: 'Listen to the chef''s story. It''s going to be good '
    icon: {fileID: 0}
    costs: []
    rewards:
    - resource: {fileID: 11400000, guid: 68d8f3b705645ad4d9384d7ba637ba15, type: 2}
      numberOfResources: 1
    concequences: []
    winCondition: 0
    loseCondition: 0
  - description: 'I don''t get a word of what they are saying '
    icon: {fileID: 0}
    costs: []
    rewards: []
    concequences: []
    winCondition: 0
    loseCondition: 0
  icon: {fileID: 2800000, guid: 7a58c5420ef03c14cbd882c4d1987201, type: 3}
  sequenceEvent: 0
  probability: 0
