%YAML 1.1
%TAG !u! tag:unity3d.com,2011:
--- !u!114 &11400000
MonoBehaviour:
  m_ObjectHideFlags: 0
  m_CorrespondingSourceObject: {fileID: 0}
  m_PrefabInstance: {fileID: 0}
  m_PrefabAsset: {fileID: 0}
  m_GameObject: {fileID: 0}
  m_Enabled: 1
  m_EditorHideFlags: 0
  m_Script: {fileID: 11500000, guid: 0477a393654107d408e1c53245b44d95, type: 3}
  m_Name: NotTHAToasis!
  m_EditorClassIdentifier: 
  eventName: Not THAT oasis!
  description: "You arrive at THAT oasis. The worst oasis in all Calirum.  The water
    is not good, there no place to park the camel and it's full of people that speak
    very loud. \r"
  eventOptions:
  - description: 'That is my water you son of a b****! '
    icon: {fileID: 0}
    costs:
    - resource: {fileID: 11400000, guid: e0895b4180cd15441acd5e5b522c3bc8, type: 2}
      numberOfResources: 1
    rewards:
    - resource: {fileID: 11400000, guid: e01663de9e4aebb4db01d24516d85b82, type: 2}
      numberOfResources: 1
    - resource: {fileID: 11400000, guid: 0fdb69e0418e42f4fac50fb8331af3e7, type: 2}
      numberOfResources: 1
    concequences: []
    winCondition: 0
    loseCondition: 0
    consequenceText: 
  - description: 'Leave the oasis '
    icon: {fileID: 0}
    costs: []
    rewards: []
    concequences: []
    winCondition: 0
    loseCondition: 0
    consequenceText: 
  - description: 'Stay in the line like a good person '
    icon: {fileID: 0}
    costs:
    - resource: {fileID: 11400000, guid: 6147a39aa23162e40a0590e02e8c0261, type: 2}
      numberOfResources: 1
    - resource: {fileID: 11400000, guid: e0895b4180cd15441acd5e5b522c3bc8, type: 2}
      numberOfResources: 1
    rewards:
    - resource: {fileID: 11400000, guid: e01663de9e4aebb4db01d24516d85b82, type: 2}
      numberOfResources: 1
    concequences: []
    winCondition: 0
    loseCondition: 0
    consequenceText: 
  - description: Practice your stand up while waiting
    icon: {fileID: 0}
    costs:
    - resource: {fileID: 11400000, guid: 4c48fe511ca109c4fba996e340b57976, type: 2}
      numberOfResources: 1
    rewards:
    - resource: {fileID: 11400000, guid: e01663de9e4aebb4db01d24516d85b82, type: 2}
      numberOfResources: 1
    - resource: {fileID: 11400000, guid: 0fdb69e0418e42f4fac50fb8331af3e7, type: 2}
      numberOfResources: 1
    concequences: []
    winCondition: 0
    loseCondition: 0
    consequenceText: 
  - description: Practice your stand up but with good jokes
    icon: {fileID: 0}
    costs:
    - resource: {fileID: 11400000, guid: 4c48fe511ca109c4fba996e340b57976, type: 2}
      numberOfResources: 2
    - resource: {fileID: 11400000, guid: 0fdb69e0418e42f4fac50fb8331af3e7, type: 2}
      numberOfResources: 1
    rewards:
    - resource: {fileID: 11400000, guid: e01663de9e4aebb4db01d24516d85b82, type: 2}
      numberOfResources: 1
    concequences: []
    winCondition: 0
    loseCondition: 0
    consequenceText: 
  icon: {fileID: 2800000, guid: b3cbcf18d2dd4ec47bc1e63447e2fa78, type: 3}
  sequenceEvent: 0
  probability: 0
