%YAML 1.1
%TAG !u! tag:unity3d.com,2011:
--- !u!114 &11400000
MonoBehaviour:
  m_ObjectHideFlags: 0
  m_CorrespondingSourceObject: {fileID: 0}
  m_PrefabInstance: {fileID: 0}
  m_PrefabAsset: {fileID: 0}
  m_GameObject: {fileID: 0}
  m_Enabled: 1
  m_EditorHideFlags: 0
  m_Script: {fileID: 11500000, guid: 0477a393654107d408e1c53245b44d95, type: 3}
  m_Name: TheBeggars
  m_EditorClassIdentifier: 
  eventName: 'The Beggars '
  description: 'A group of beggars approaches you and ask for your kindness. '
  eventOptions:
  - description: Give some of your food
    icon: {fileID: 0}
    costs:
    - resource: {fileID: 11400000, guid: e01663de9e4aebb4db01d24516d85b82, type: 2}
      numberOfResources: 1
    rewards: []
    concequences:
    - {fileID: 11400000, guid: 5fa64850958328a45b7abccf839df433, type: 2}
    winCondition: 0
    loseCondition: 0
    consequenceText: 'Add favour '
  - description: 'Give some money '
    icon: {fileID: 0}
    costs:
    - resource: {fileID: 11400000, guid: f8d6ad63e5c697244915d10aaa8359db, type: 2}
      numberOfResources: 1
    rewards: []
    concequences:
    - {fileID: 11400000, guid: 5fa64850958328a45b7abccf839df433, type: 2}
    winCondition: 0
    loseCondition: 0
    consequenceText: 'Add favour '
  - description: 'Make a PR move '
    icon: {fileID: 0}
    costs:
    - resource: {fileID: 11400000, guid: e01663de9e4aebb4db01d24516d85b82, type: 2}
      numberOfResources: 2
    - resource: {fileID: 11400000, guid: f8d6ad63e5c697244915d10aaa8359db, type: 2}
      numberOfResources: 2
    - resource: {fileID: 11400000, guid: 0fdb69e0418e42f4fac50fb8331af3e7, type: 2}
      numberOfResources: 2
    rewards: []
    concequences:
    - {fileID: 11400000, guid: 5fa64850958328a45b7abccf839df433, type: 2}
    winCondition: 0
    loseCondition: 0
    consequenceText: 'Add favour '
  - description: Ignore them
    icon: {fileID: 0}
    costs: []
    rewards: []
    concequences: []
    winCondition: 0
    loseCondition: 0
    consequenceText: 
  icon: {fileID: 2800000, guid: 6c406cf96f207da4898e0658d259c790, type: 3}
  sequenceEvent: 0
  probability: 0
