%YAML 1.1
%TAG !u! tag:unity3d.com,2011:
--- !u!114 &11400000
MonoBehaviour:
  m_ObjectHideFlags: 0
  m_CorrespondingSourceObject: {fileID: 0}
  m_PrefabInstance: {fileID: 0}
  m_PrefabAsset: {fileID: 0}
  m_GameObject: {fileID: 0}
  m_Enabled: 1
  m_EditorHideFlags: 0
  m_Script: {fileID: 11500000, guid: 0477a393654107d408e1c53245b44d95, type: 3}
  m_Name: HeavyLoad
  m_EditorClassIdentifier: 
  eventName: 'Heavy Load '
  description: "You have exceeded your inventory capacity. Which can slow the journey
    and a slow journey could be the death of the traveller.\r"
  eventOptions:
  - description: 'Walk slowly '
    icon: {fileID: 0}
    costs:
    - resource: {fileID: 11400000, guid: e0895b4180cd15441acd5e5b522c3bc8, type: 2}
      numberOfResources: 2
    - resource: {fileID: 11400000, guid: e01663de9e4aebb4db01d24516d85b82, type: 2}
      numberOfResources: 2
    rewards: []
    concequences: []
    winCondition: 0
    loseCondition: 0
    consequenceText: Remove heavy load
  - description: 'Mental strength '
    icon: {fileID: 0}
    costs:
    - resource: {fileID: 11400000, guid: e0895b4180cd15441acd5e5b522c3bc8, type: 2}
      numberOfResources: 2
    - resource: {fileID: 11400000, guid: 6147a39aa23162e40a0590e02e8c0261, type: 2}
      numberOfResources: 1
    - resource: {fileID: 11400000, guid: 68d8f3b705645ad4d9384d7ba637ba15, type: 2}
      numberOfResources: 1
    rewards: []
    concequences: []
    winCondition: 0
    loseCondition: 0
    consequenceText: Remove heavy load
  - description: 'Politely ask the universe to take part of your burden '
    icon: {fileID: 0}
    costs:
    - resource: {fileID: 11400000, guid: ef0b8735267979c4d94d93006e5a91c2, type: 2}
      numberOfResources: 1
    - resource: {fileID: 11400000, guid: e0895b4180cd15441acd5e5b522c3bc8, type: 2}
      numberOfResources: 1
    rewards: []
    concequences: []
    winCondition: 0
    loseCondition: 0
    consequenceText: Remove heavy load
  - description: 'Maybe it was better not to bring so much junk '
    icon: {fileID: 0}
    costs: []
    rewards: []
    concequences: []
    winCondition: 0
    loseCondition: 1
    consequenceText: 
  icon: {fileID: 2800000, guid: 703bdbb82eac70445b2e295424a51a59, type: 3}
  sequenceEvent: 1
  probability: 100
