%YAML 1.1
%TAG !u! tag:unity3d.com,2011:
--- !u!114 &11400000
MonoBehaviour:
  m_ObjectHideFlags: 0
  m_CorrespondingSourceObject: {fileID: 0}
  m_PrefabInstance: {fileID: 0}
  m_PrefabAsset: {fileID: 0}
  m_GameObject: {fileID: 0}
  m_Enabled: 1
  m_EditorHideFlags: 0
  m_Script: {fileID: 11500000, guid: 0477a393654107d408e1c53245b44d95, type: 3}
  m_Name: SeriousInjury
  m_EditorClassIdentifier: 
  eventName: 'Serious injury '
  description: 'You got a serious injury that needs immediate treatment. '
  eventOptions:
  - description: 'Go to the doctor (there isn''t public health in Calirum) '
    icon: {fileID: 0}
    costs:
    - resource: {fileID: 11400000, guid: f8d6ad63e5c697244915d10aaa8359db, type: 2}
      numberOfResources: 4
    - resource: {fileID: 11400000, guid: e0895b4180cd15441acd5e5b522c3bc8, type: 2}
      numberOfResources: 1
    rewards: []
    concequences: []
    winCondition: 0
    loseCondition: 0
    consequenceText: 
  - description: 'You know. I''m something of a doctor myself. '
    icon: {fileID: 0}
    costs:
    - resource: {fileID: 11400000, guid: 68d8f3b705645ad4d9384d7ba637ba15, type: 2}
      numberOfResources: 2
    - resource: {fileID: 11400000, guid: e0895b4180cd15441acd5e5b522c3bc8, type: 2}
      numberOfResources: 2
    rewards: []
    concequences: []
    winCondition: 0
    loseCondition: 0
    consequenceText: 
  - description: 'I can totally just walk it off '
    icon: {fileID: 0}
    costs: []
    rewards: []
    concequences: []
    winCondition: 0
    loseCondition: 1
    consequenceText: 
  - description: 'I can always ask this old lady '
    icon: {fileID: 0}
    costs:
    - resource: {fileID: 11400000, guid: f8d6ad63e5c697244915d10aaa8359db, type: 2}
      numberOfResources: 1
    - resource: {fileID: 11400000, guid: e0895b4180cd15441acd5e5b522c3bc8, type: 2}
      numberOfResources: 1
    - resource: {fileID: 11400000, guid: 6147a39aa23162e40a0590e02e8c0261, type: 2}
      numberOfResources: 1
    rewards: []
    concequences:
    - {fileID: 11400000}
    winCondition: 0
    loseCondition: 0
    consequenceText: 
  - description: 'The universe will heal me '
    icon: {fileID: 0}
    costs:
    - resource: {fileID: 11400000, guid: ef0b8735267979c4d94d93006e5a91c2, type: 2}
      numberOfResources: 1
    rewards: []
    concequences: []
    winCondition: 0
    loseCondition: 0
    consequenceText: 
  icon: {fileID: 2800000, guid: a505446b8b2ec7c4eb8c52fd80e85ff3, type: 3}
  sequenceEvent: 0
  probability: 30
