%YAML 1.1
%TAG !u! tag:unity3d.com,2011:
--- !u!114 &11400000
MonoBehaviour:
  m_ObjectHideFlags: 0
  m_CorrespondingSourceObject: {fileID: 0}
  m_PrefabInstance: {fileID: 0}
  m_PrefabAsset: {fileID: 0}
  m_GameObject: {fileID: 0}
  m_Enabled: 1
  m_EditorHideFlags: 0
  m_Script: {fileID: 11500000, guid: 0477a393654107d408e1c53245b44d95, type: 3}
  m_Name: Starvation
  m_EditorClassIdentifier: 
  eventName: Starvation
  description: 'You skip a meal and now you are starving. Just eat something '
  eventOptions:
  - description: 'Eat some food '
    icon: {fileID: 0}
    costs:
    - resource: {fileID: 11400000, guid: e01663de9e4aebb4db01d24516d85b82, type: 2}
      numberOfResources: 1
    rewards: []
    concequences:
    - {fileID: 11400000}
    winCondition: 0
    loseCondition: 0
    consequenceText: 
  - description: 'It''s time to eat well '
    icon: {fileID: 0}
    costs:
    - resource: {fileID: 11400000, guid: e01663de9e4aebb4db01d24516d85b82, type: 2}
      numberOfResources: 2
    rewards: []
    concequences: []
    winCondition: 0
    loseCondition: 0
    consequenceText: remove Starvation
  - description: 'Hunger is but a state of mind '
    icon: {fileID: 0}
    costs:
    - resource: {fileID: 11400000, guid: ef0b8735267979c4d94d93006e5a91c2, type: 2}
      numberOfResources: 1
    rewards: []
    concequences: []
    winCondition: 0
    loseCondition: 0
    consequenceText: remove Starvation
  - description: 'This guy is so tasty '
    icon: {fileID: 0}
    costs:
    - resource: {fileID: 11400000, guid: e0895b4180cd15441acd5e5b522c3bc8, type: 2}
      numberOfResources: 1
    - resource: {fileID: 11400000, guid: 0fdb69e0418e42f4fac50fb8331af3e7, type: 2}
      numberOfResources: 3
    - resource: {fileID: 11400000, guid: 6147a39aa23162e40a0590e02e8c0261, type: 2}
      numberOfResources: 3
    rewards: []
    concequences: []
    winCondition: 0
    loseCondition: 0
    consequenceText: remove Starvation
  - description: Starve
    icon: {fileID: 0}
    costs: []
    rewards: []
    concequences: []
    winCondition: 0
    loseCondition: 1
    consequenceText: 
  icon: {fileID: 2800000, guid: 3a808f148ef21b44c82d8fb902bb3824, type: 3}
  sequenceEvent: 0
  probability: 30
